====================== run utest/HARDatoi.c ==========================
====================== run utest/atoi.c ==========================
====================== run utest/bzero.c ==========================
====================== run utest/isalnum.c ==========================
====================== run utest/isalpha.c ==========================
====================== run utest/isascii.c ==========================
====================== run utest/isdigit.c ==========================
====================== run utest/isprint.c ==========================
====================== run utest/itoa.c ==========================
====================== run utest/list.c ==========================
====================== run utest/listbase.c ==========================
====================== run utest/listmap.c ==========================
====================== run utest/listmapf.c ==========================
====================== run utest/listmapr.c ==========================
====================== run utest/memalloc.c ==========================
====================== run utest/memccpy.c ==========================
====================== run utest/memchr.c ==========================
====================== run utest/memchr2.c ==========================
====================== run utest/memchr3.c ==========================
====================== run utest/memchr4.c ==========================
====================== run utest/memcmp.c ==========================
====================== run utest/memcpy.c ==========================
====================== run utest/memdel.c ==========================
====================== run utest/memmove.c ==========================
====================== run utest/memmove2.c ==========================
====================== run utest/memset.c ==========================
====================== run utest/put.c ==========================
-0
OK
-1
OK
-2
OK
--
-0
OK
-1
OK
-2
OK
====================== run utest/putnbr.c ==========================
0:0
1:1
-1:-1
2147483647:2147483647
-2147483648:-2147483648
====================== run utest/strcat.c ==========================
====================== run utest/strchr.c ==========================
====================== run utest/strclr.c ==========================
====================== run utest/strcmp.c ==========================
====================== run utest/strcpy.c ==========================
====================== run utest/strdel.c ==========================
====================== run utest/strdup.c ==========================
====================== run utest/streter.c ==========================
====================== run utest/strjoin.c ==========================
====================== run utest/strlcat.c ==========================
====================== run utest/strlen.c ==========================
====================== run utest/strncat.c ==========================
====================== run utest/strncpy.c ==========================
====================== run utest/strnew.c ==========================
====================== run utest/strnstr.c ==========================
====================== run utest/strrchr.c ==========================
====================== run utest/strsplit.c ==========================
====================== run utest/strsplit2.c ==========================
====================== run utest/strstr.c ==========================
====================== run utest/strsub.c ==========================
====================== run utest/strtrim.c ==========================
====================== run utest/tolower.c ==========================
====================== run utest/toupper.c ==========================
normalemt, se qui est afficher est equivalent a ref.txt
